<?xml version="1.0" encoding="UTF-8" standalone="no"?>
<svg
   xmlns:dc="http://purl.org/dc/elements/1.1/"
   xmlns:cc="http://creativecommons.org/ns#"
   xmlns:rdf="http://www.w3.org/1999/02/22-rdf-syntax-ns#"
   xmlns:svg="http://www.w3.org/2000/svg"
   xmlns="http://www.w3.org/2000/svg"
   xmlns:sodipodi="http://sodipodi.sourceforge.net/DTD/sodipodi-0.dtd"
   xmlns:inkscape="http://www.inkscape.org/namespaces/inkscape"
   height="224.3474"
   width="221.80502"
   version="1.1"
   x="0px"
   y="0px"
   viewBox="-255 347 73.935008 74.782466"
   enable-background="new -255 347 100 100"
   xml:space="preserve"
   id="svg12"
   sodipodi:docname="icon.svg"
   inkscape:version="0.92.4 (5da689c313, 2019-01-14)"
   style="fill:#000000"><metadata
     id="metadata18"><rdf:RDF><cc:Work
         rdf:about=""><dc:format>image/svg+xml</dc:format><dc:type
           rdf:resource="http://purl.org/dc/dcmitype/StillImage" /></cc:Work></rdf:RDF></metadata><defs
     id="defs16" /><sodipodi:namedview
     pagecolor="#ffffff"
     bordercolor="#666666"
     borderopacity="1"
     objecttolerance="10"
     gridtolerance="10"
     guidetolerance="10"
     inkscape:pageopacity="0"
     inkscape:pageshadow="2"
     inkscape:window-width="1856"
     inkscape:window-height="1016"
     id="namedview14"
     showgrid="false"
     inkscape:zoom="0.78666667"
     inkscape:cx="53.694024"
     inkscape:cy="31.45332"
     inkscape:window-x="0"
     inkscape:window-y="27"
     inkscape:window-maximized="1"
     inkscape:current-layer="svg12" /><g
     id="g10"
     transform="translate(-10.701992,-10.701977)"><path
       d="m -221,384 h 27 c 1.1,0 2,-0.9 2,-2 0,-1.1 -0.9,-2 -2,-2 h -27 c -1.1,0 -2,0.9 -2,2 0,1.1 0.9,2 2,2 z"
       id="path2"
       inkscape:connector-curvature="0"
       style="fill:#000000" /><path
       d="m -221,393 h 27 c 1.1,0 2,-0.9 2,-2 0,-1.1 -0.9,-2 -2,-2 h -27 c -1.1,0 -2,0.9 -2,2 0,1.1 0.9,2 2,2 z"
       id="path4"
       inkscape:connector-curvature="0"
       style="fill:#000000" /><path
       d="m -221,402 h 18 c 1.1,0 2,-0.9 2,-2 0,-1.1 -0.9,-2 -2,-2 h -18 c -1.1,0 -2,0.9 -2,2 0,1.1 0.9,2 2,2 z"
       id="path6"
       inkscape:connector-curvature="0"
       style="fill:#000000" /><path
       d="m -183.6,370 h -48 c -1.1,0 -2,0.9 -2,2 v 37 c 0,0.1 0,0.3 0,0.4 0,0 0,0 0,0 0,0.2 0.1,0.3 0.2,0.5 0,0 0,0.1 0.1,0.1 0.1,0.2 0.2,0.3 0.3,0.4 l 11,11 c 0.1,0.1 0.2,0.2 0.3,0.3 0.1,0 0.1,0.1 0.2,0.1 0,0 0.1,0.1 0.1,0.1 0.1,0 0.2,0.1 0.2,0.1 0,0 0.1,0 0.1,0 0.1,0 0.3,0 0.4,0 h 37 c 1.1,0 2,-0.9 2,-2 v -48 c 0.1,-1.1 -0.8,-2 -1.9,-2 z m -43.2,41 h 4.2 v 4.2 z m 41.2,7 h -33 v -9 c 0,-1.1 -0.9,-2 -2,-2 h -9 v -33 h 44 z"
       id="path8"
       inkscape:connector-curvature="0"
       style="fill:#000000" /></g></svg>